<?xml version="1.0" encoding="utf-8"?>
<!-- Generator: Adobe Illustrator 24.0.0, SVG Export Plug-In . SVG Version: 6.00 Build 0)  -->
<svg version="1.1" id="Layer_1" xmlns="http://www.w3.org/2000/svg" xmlns:xlink="http://www.w3.org/1999/xlink" x="0px" y="0px"
	 viewBox="0 0 72 72" style="enable-background:new 0 0 72 72;" xml:space="preserve">
<g transform="translate(29 107)">
	<g transform="translate(17694 10139)">
		<path class="st0" fill="none" d="M-17717-10246h60c3.3,0,6,2.7,6,6v60c0,3.3-2.7,6-6,6h-60c-3.3,0-6-2.7-6-6v-60
			C-17723-10243.3-17720.3-10246-17717-10246z"/>
	</g>
</g>
<g transform="translate(2.82 -8.344)">
	<path class="st1" fill="#1C6969" stroke="#F2F6F6" stroke-width=".5" d="M27.9,57.3c-1.4,0-2.6-0.9-3-2.2l-2.5-7.9l-7.9-2.7c-1.7-0.6-2.6-2.4-2-4c0.3-1,1.1-1.7,2.1-2l7.9-2.4l2.7-7.9
		c0.4-1.3,1.7-2.2,3.1-2.2c1.4,0,2.6,0.9,3,2.3l2.4,7.9l7.9,2.5c1.7,0.6,2.6,2.4,2,4c-0.3,1-1.1,1.7-2,2l0,0l-7.9,2.5l-2.5,7.9
		C30.5,56.4,29.3,57.3,27.9,57.3L27.9,57.3z M28,29.1l-3,8.7c-0.2,0.5-0.5,0.9-1,1l-8.7,2.6l8.7,3c0.5,0.2,0.8,0.5,1,1l2.8,8.7
		l2.9-8.7c0.2-0.5,0.5-0.9,1-1l8.7-2.8c0,0,0,0,0,0l-8.7-2.9c-0.5-0.2-0.9-0.5-1-1L28,29.1z"/>
	<path class="st2" fill="#FFFFFF" stroke="#1C6969" stroke-width="2" d="M47.9,63c-0.6,0-1.2-0.4-1.5-1l-1.3-3.3l-3.3-1.4C41,56.9,40.7,56,41,55.2c0.2-0.4,0.5-0.7,0.9-0.8l3.3-1.2
		l1.3-3.3c0.3-0.8,1.3-1.2,2.1-0.8c0.4,0.2,0.7,0.5,0.8,0.8l1.3,3.3l3.3,1.3c0.8,0.3,1.2,1.3,0.8,2.1c-0.2,0.4-0.5,0.7-0.8,0.8
		l-3.3,1.3L49.4,62C49.2,62.6,48.6,63,47.9,63z M49.5,36.3c-0.7,0-1.3-0.5-1.5-1.2l-0.6-2.2l-2.2-0.6c-0.8-0.2-1.3-1.1-1.1-1.9
		c0.1-0.6,0.6-1,1.2-1.1l2.2-0.5l0.6-2.2c0.2-0.8,1.1-1.4,1.9-1.1c0.6,0.1,1,0.6,1.1,1.1l0.6,2.2l2.2,0.6c0.8,0.2,1.4,1.1,1.1,1.9
		c-0.1,0.6-0.6,1-1.1,1.1l-2.2,0.6L51,35.1C50.9,35.8,50.2,36.3,49.5,36.3L49.5,36.3z"/>
</g>
</svg>
