<svg xmlns="http://www.w3.org/2000/svg" width="28.5" height="28.5" viewBox="0 0 28.5 28.5">
  <path id="calendar-check" d="M22.167,2.333H21V1.167a1.167,1.167,0,0,0-2.333,0V2.333H9.333V1.167A1.167,1.167,0,1,0,7,1.167V2.333H5.833A5.84,5.84,0,0,0,0,8.167v14A5.84,5.84,0,0,0,5.833,28H22.167A5.84,5.84,0,0,0,28,22.167v-14A5.84,5.84,0,0,0,22.167,2.333ZM5.833,4.667H22.167a3.5,3.5,0,0,1,3.5,3.5V9.333H2.333V8.167A3.5,3.5,0,0,1,5.833,4.667Zm16.333,21H5.833a3.5,3.5,0,0,1-3.5-3.5v-10.5H25.667v10.5A3.5,3.5,0,0,1,22.167,25.667ZM20.8,15.344a1.167,1.167,0,0,1-.029,1.65l-5.53,5.329a3.5,3.5,0,0,1-4.934-.015L7.684,19.867a1.166,1.166,0,1,1,1.588-1.709l2.658,2.47a1.176,1.176,0,0,0,1.679.03l5.546-5.346a1.168,1.168,0,0,1,1.65.03Z" transform="translate(0.25 0.25)" fill="#005858" stroke="#f6f9f9" stroke-width="0.5"/>
</svg>
