<svg xmlns="http://www.w3.org/2000/svg" width="74" height="113" viewBox="0 0 74 113">
  <g id="Group_17875" data-name="Group 17875" transform="translate(-149 -257)">
    <ellipse id="Ellipse_1218" data-name="Ellipse 1218" cx="26" cy="2.5" rx="26" ry="2.5" transform="translate(160 365)" fill="#f3f3f3"/>
    <g id="Group_16732" data-name="Group 16732" transform="translate(-816 -210)">
      <rect id="Rectangle_22339" data-name="Rectangle 22339" width="74" height="99" rx="6" transform="translate(965 467)" fill="#f3f3f3"/>
    </g>
    <path id="heart_3_" data-name="heart (3)" d="M16.662,32.235l-1.2-.85C13.877,30.266,0,20.185,0,10.976A9.769,9.769,0,0,1,9.373.875a9.122,9.122,0,0,1,7.289,3.758A9.122,9.122,0,0,1,23.951.875a9.769,9.769,0,0,1,9.372,10.1c0,9.209-13.876,19.29-15.458,20.409ZM9.373,5.04a5.613,5.613,0,0,0-5.206,5.935c0,5.437,8.14,12.787,12.5,16.121,4.355-3.332,12.5-10.684,12.5-16.121A5.613,5.613,0,0,0,23.951,5.04a5.613,5.613,0,0,0-5.206,5.935H14.58A5.613,5.613,0,0,0,9.373,5.04Z" transform="translate(165.671 333.125)" fill="#005858"/>
    <circle id="Ellipse_1243" data-name="Ellipse 1243" cx="11.5" cy="11.5" r="11.5" transform="translate(187 346)" fill="#004c4c"/>
    <text id="_0" data-name="0" transform="translate(199 363)" fill="#fff" font-size="14" font-family="Work Sans"><tspan x="-4.354" y="0">0</tspan></text>
  </g>
</svg>
