<?xml version="1.0" encoding="utf-8"?>
<!-- Generator: Adobe Illustrator 24.0.0, SVG Export Plug-In . SVG Version: 6.00 Build 0)  -->
<svg version="1.1" id="Layer_1" xmlns="http://www.w3.org/2000/svg" xmlns:xlink="http://www.w3.org/1999/xlink" x="0px" y="0px"
	 viewBox="0 0 116 106" style="enable-background:new 0 0 116 106;" xml:space="preserve">
<g>
	<path class="st0" fill="#005858"  d="M58,0c32,0,58,16,58,48c0,32-26,58-58,58S0,80,0,48C0,16,26,0,58,0z"/>
	<g class="st1">
		<path class="st2" fill="#FFFFFF" d="M46.7,54.3V33c0-0.8,0-1.5,0-2.1c0-0.6,0-1.1,0-1.6c-1,0.1-2,0.3-3.1,0.4c-1,0.2-2,0.3-3,0.5l0.6-2.5
			c1.1-0.3,2.3-0.5,3.7-0.8c1.4-0.2,2.9-0.5,4.4-0.6c1.5-0.2,3-0.3,4.6-0.4s2.9-0.2,4.3-0.2c1.2,0,2.5,0.1,3.7,0.2s2.5,0.3,3.6,0.6
			s2.3,0.7,3.3,1.2s1.9,1.1,2.7,1.9s1.3,1.7,1.8,2.8s0.6,2.3,0.6,3.7c0,1.5-0.2,2.8-0.7,4s-1.1,2.2-1.9,3.2s-1.8,1.7-2.9,2.4
			s-2.3,1.2-3.6,1.7c1.3,2.4,2.5,4.4,3.5,6.2s2,3.3,2.9,4.7s1.7,2.4,2.5,3.3s1.7,1.6,2.5,2.2s1.8,1,2.8,1.2s2.1,0.4,3.4,0.5l-0.9,2
			c-0.9,0.2-1.8,0.3-2.7,0.3s-1.7,0.1-2.3,0.1c-1.3,0-2.5-0.2-3.5-0.5s-2-0.8-2.9-1.4s-1.8-1.3-2.6-2.2s-1.6-1.9-2.5-3.1
			s-1.7-2.5-2.5-4s-1.8-3.1-2.8-4.9l-0.7-1.2c-0.2-0.3-0.3-0.5-0.4-0.6s-0.3-0.3-0.4-0.3c-0.1-0.1-0.3-0.1-0.5-0.2
			c-0.2,0-0.3,0-0.5,0c-0.2,0-0.3,0-0.5,0c-0.2,0-0.5,0-0.8,0s-0.7,0-1.1,0c-0.4,0-1,0-1.5,0c0,3.4,0,6.2,0,8.3
			c0,2.1,0.1,3.7,0.1,4.8c0,0.5,0.1,0.9,0.2,1.1c0.1,0.3,0.3,0.5,0.7,0.7c0.4,0.2,1,0.3,1.8,0.4c0.8,0.1,2,0.2,3.5,0.3l-1,2.3
			c-0.4-0.1-1-0.1-1.7-0.1s-1.4-0.1-2.2-0.1c-0.8,0-1.6-0.1-2.4-0.1c-0.8,0-1.6,0-2.4,0c-1.2,0-2.3,0-3.4,0.1s-2,0.1-2.8,0.1
			s-1.5,0.1-2,0.2c-0.5,0-0.8,0.1-0.9,0.1c0-0.2,0-0.4,0.1-0.6c0.1-0.3,0.3-0.6,0.6-0.9c0.3-0.3,0.9-0.6,1.6-0.8
			c0.7-0.3,1.8-0.4,3.2-0.5c0.1-0.8,0.1-1.7,0.2-2.7c0-1.1,0.1-2.2,0.1-3.5S46.7,55.7,46.7,54.3z M56.2,28.5c-0.5,0-0.9,0-1.3,0
			s-0.9,0.1-1.4,0.1c0,1-0.1,2-0.1,3.2c0,1.1,0,2.4,0,3.9V47h0.7c1.1,0,2.1,0,3.2-0.1s2-0.3,3-0.5s1.8-0.6,2.6-1s1.5-1,2.1-1.7
			s1-1.6,1.4-2.6s0.5-2.2,0.5-3.5c0-1.6-0.2-3-0.7-4.1s-1.2-2.1-2.1-2.8s-2-1.2-3.3-1.6S57.8,28.5,56.2,28.5z"/>
	</g>
	<path class="st3" fill="#E5B998" d="M23,61.9c1.9-0.3,5-0.8,6.1-4.2V46.6h0.7v11.1c1.1,3.3,4.2,3.9,6.1,4.2c-4.7,1-6,3.9-6.4,5.5
		c0,0.1-0.1,0.8-0.1,0.9c0-0.1,0-0.8-0.1-0.9C29,65.8,27.7,62.9,23,61.9z"/>
	<g class="st1">
		<path class="st3" fill="#E5B998" d="M37,83v-4.3c0-0.2,0-0.3,0-0.4c0-0.1,0-0.2,0-0.3c-0.2,0-0.4,0.1-0.6,0.1c-0.2,0-0.4,0.1-0.6,0.1l0.1-0.5
			c0.2-0.1,0.5-0.1,0.8-0.2c0.3,0,0.6-0.1,0.9-0.1c0.3,0,0.6-0.1,0.9-0.1c0.3,0,0.6,0,0.9,0c0.2,0,0.5,0,0.8,0
			c0.3,0,0.5,0.1,0.7,0.1c0.2,0.1,0.5,0.1,0.7,0.2c0.2,0.1,0.4,0.2,0.5,0.4c0.2,0.2,0.3,0.3,0.4,0.6c0.1,0.2,0.1,0.5,0.1,0.8
			c0,0.3,0,0.6-0.1,0.8c-0.1,0.2-0.2,0.5-0.4,0.6c-0.2,0.2-0.4,0.4-0.6,0.5c-0.2,0.1-0.5,0.3-0.7,0.3c0.3,0.5,0.5,0.9,0.7,1.3
			s0.4,0.7,0.6,0.9c0.2,0.3,0.3,0.5,0.5,0.7c0.2,0.2,0.3,0.3,0.5,0.4c0.2,0.1,0.4,0.2,0.6,0.2c0.2,0.1,0.4,0.1,0.7,0.1L44,85.6
			c-0.2,0-0.4,0.1-0.6,0.1c-0.2,0-0.3,0-0.5,0c-0.3,0-0.5,0-0.7-0.1c-0.2-0.1-0.4-0.2-0.6-0.3c-0.2-0.1-0.4-0.3-0.5-0.5
			c-0.2-0.2-0.3-0.4-0.5-0.6c-0.2-0.2-0.3-0.5-0.5-0.8c-0.2-0.3-0.4-0.6-0.6-1l-0.1-0.2c0-0.1-0.1-0.1-0.1-0.1c0,0-0.1-0.1-0.1-0.1
			c0,0-0.1,0-0.1,0c0,0-0.1,0-0.1,0c0,0-0.1,0-0.1,0c0,0-0.1,0-0.2,0s-0.1,0-0.2,0c-0.1,0-0.2,0-0.3,0c0,0.7,0,1.2,0,1.7
			c0,0.4,0,0.8,0,1c0,0.1,0,0.2,0,0.2c0,0.1,0.1,0.1,0.1,0.1c0.1,0,0.2,0.1,0.4,0.1c0.2,0,0.4,0,0.7,0.1l-0.2,0.5
			c-0.1,0-0.2,0-0.3,0c-0.1,0-0.3,0-0.4,0s-0.3,0-0.5,0c-0.2,0-0.3,0-0.5,0c-0.2,0-0.5,0-0.7,0s-0.4,0-0.6,0s-0.3,0-0.4,0
			c-0.1,0-0.2,0-0.2,0c0,0,0-0.1,0-0.1c0-0.1,0.1-0.1,0.1-0.2c0.1-0.1,0.2-0.1,0.3-0.2c0.1-0.1,0.4-0.1,0.6-0.1c0-0.2,0-0.3,0-0.6
			c0-0.2,0-0.5,0-0.7C37,83.5,37,83.3,37,83z M38.9,77.8c-0.1,0-0.2,0-0.3,0s-0.2,0-0.3,0c0,0.2,0,0.4,0,0.6c0,0.2,0,0.5,0,0.8v2.3
			h0.1c0.2,0,0.4,0,0.6,0c0.2,0,0.4-0.1,0.6-0.1c0.2,0,0.4-0.1,0.5-0.2c0.2-0.1,0.3-0.2,0.4-0.3c0.1-0.1,0.2-0.3,0.3-0.5
			c0.1-0.2,0.1-0.4,0.1-0.7c0-0.3,0-0.6-0.1-0.8c-0.1-0.2-0.2-0.4-0.4-0.6c-0.2-0.1-0.4-0.3-0.7-0.3C39.5,77.8,39.2,77.8,38.9,77.8z
			"/>
		<path class="st3" fill="#E5B998" d="M45.6,82.6c0,0.4,0.1,0.7,0.2,1c0.1,0.3,0.2,0.5,0.4,0.7c0.2,0.2,0.4,0.3,0.6,0.4c0.2,0.1,0.5,0.1,0.8,0.1
			c0.1,0,0.2,0,0.3,0s0.2,0,0.3-0.1c0.1,0,0.2-0.1,0.4-0.1c0.1-0.1,0.3-0.1,0.4-0.2l0.2,0.3c-0.8,0.7-1.7,1-2.6,1
			c-0.3,0-0.6,0-0.9-0.1c-0.3-0.1-0.6-0.2-0.8-0.5s-0.4-0.5-0.6-0.8s-0.2-0.8-0.2-1.3c0-0.6,0.1-1,0.3-1.4c0.2-0.4,0.4-0.8,0.7-1
			c0.3-0.3,0.6-0.5,1-0.6c0.4-0.1,0.7-0.2,1.1-0.2c0.3,0,0.6,0,0.8,0.1c0.2,0.1,0.4,0.2,0.5,0.4s0.2,0.4,0.3,0.6
			c0.1,0.2,0.1,0.4,0.1,0.7c0,0.2,0,0.3,0,0.4c0,0.1-0.1,0.3-0.1,0.4L45.6,82.6z M47.9,82c0-0.1,0-0.1,0-0.2c0-0.1,0-0.1,0-0.2
			c0-0.2,0-0.3-0.1-0.5c0-0.2-0.1-0.3-0.2-0.4c-0.1-0.1-0.2-0.2-0.3-0.3c-0.1-0.1-0.3-0.1-0.5-0.1c-0.2,0-0.3,0-0.5,0.1
			c-0.1,0.1-0.3,0.2-0.4,0.3c-0.1,0.1-0.2,0.3-0.3,0.5c-0.1,0.2-0.1,0.5-0.1,0.8L47.9,82z"/>
		<path class="st3" fill="#E5B998" d="M50.8,83.7c0,0.3,0.1,0.5,0.2,0.7s0.2,0.3,0.4,0.5s0.3,0.2,0.5,0.3c0.2,0.1,0.3,0.1,0.5,0.1
			c0.1,0,0.3,0,0.4,0c0.1,0,0.2-0.1,0.3-0.1s0.1-0.1,0.2-0.2s0.1-0.2,0.1-0.3c0-0.1,0-0.3-0.1-0.4s-0.2-0.2-0.3-0.3
			c-0.1-0.1-0.3-0.2-0.4-0.2c-0.2-0.1-0.3-0.1-0.5-0.2c-0.2-0.1-0.4-0.2-0.6-0.3s-0.4-0.2-0.6-0.3c-0.2-0.1-0.3-0.3-0.4-0.5
			c-0.1-0.2-0.2-0.4-0.2-0.6c0-0.3,0.1-0.5,0.2-0.8c0.1-0.2,0.3-0.4,0.5-0.6c0.2-0.2,0.5-0.3,0.7-0.4c0.3-0.1,0.6-0.1,0.9-0.1
			c0.3,0,0.5,0,0.7,0.1c0.2,0.1,0.4,0.1,0.5,0.2c0.2,0.1,0.3,0.2,0.4,0.3c0.1,0.1,0.1,0.3,0.1,0.4c0,0.1,0,0.2-0.1,0.3
			c0,0.1-0.1,0.1-0.2,0.2c-0.1,0-0.1,0.1-0.2,0.1c-0.1,0-0.2,0-0.3,0c0,0-0.1,0-0.1,0c0,0-0.1,0-0.1,0c-0.1-0.3-0.2-0.6-0.4-0.8
			c-0.2-0.2-0.4-0.3-0.7-0.3c-0.3,0-0.5,0.1-0.6,0.2c-0.2,0.1-0.2,0.3-0.2,0.5c0,0.1,0,0.3,0.1,0.4s0.2,0.2,0.3,0.3s0.3,0.2,0.4,0.3
			c0.2,0.1,0.4,0.2,0.6,0.2c0.2,0.1,0.4,0.2,0.6,0.3c0.2,0.1,0.4,0.2,0.5,0.3c0.2,0.1,0.3,0.3,0.4,0.5c0.1,0.2,0.2,0.4,0.2,0.6
			c0,0.3-0.1,0.5-0.2,0.7c-0.1,0.2-0.3,0.4-0.5,0.6c-0.2,0.2-0.5,0.3-0.8,0.4c-0.3,0.1-0.6,0.1-1,0.1c-0.2,0-0.4,0-0.6,0
			s-0.4-0.1-0.5-0.1c-0.2-0.1-0.3-0.1-0.4-0.2s-0.1-0.2-0.1-0.3c0,0,0-0.1,0-0.1c0-0.1,0-0.1,0-0.2c0-0.1,0-0.2,0-0.4s0-0.3,0-0.5
			L50.8,83.7z"/>
		<path class="st3" fill="#E5B998" d="M56.5,82.6c0,0.4,0.1,0.7,0.2,1c0.1,0.3,0.2,0.5,0.4,0.7c0.2,0.2,0.4,0.3,0.6,0.4c0.2,0.1,0.5,0.1,0.8,0.1
			c0.1,0,0.2,0,0.3,0c0.1,0,0.2,0,0.3-0.1c0.1,0,0.2-0.1,0.4-0.1c0.1-0.1,0.3-0.1,0.4-0.2l0.2,0.3c-0.8,0.7-1.7,1-2.6,1
			c-0.3,0-0.6,0-0.9-0.1c-0.3-0.1-0.6-0.2-0.8-0.5s-0.4-0.5-0.6-0.8s-0.2-0.8-0.2-1.3c0-0.6,0.1-1,0.3-1.4c0.2-0.4,0.4-0.8,0.7-1
			c0.3-0.3,0.6-0.5,1-0.6c0.4-0.1,0.7-0.2,1.1-0.2c0.3,0,0.6,0,0.8,0.1c0.2,0.1,0.4,0.2,0.5,0.4s0.2,0.4,0.3,0.6s0.1,0.4,0.1,0.7
			c0,0.2,0,0.3,0,0.4c0,0.1-0.1,0.3-0.1,0.4L56.5,82.6z M58.8,82c0-0.1,0-0.1,0-0.2c0-0.1,0-0.1,0-0.2c0-0.2,0-0.3-0.1-0.5
			c0-0.2-0.1-0.3-0.2-0.4c-0.1-0.1-0.2-0.2-0.3-0.3c-0.1-0.1-0.3-0.1-0.5-0.1c-0.2,0-0.3,0-0.5,0.1c-0.1,0.1-0.3,0.2-0.4,0.3
			c-0.1,0.1-0.2,0.3-0.3,0.5c-0.1,0.2-0.1,0.5-0.1,0.8L58.8,82z"/>
		<path class="st3" fill="#E5B998" d="M63.2,79.8c0,0.4-0.1,0.8-0.1,1.2l0.1,0c0.2-0.2,0.3-0.4,0.5-0.5c0.1-0.2,0.3-0.3,0.4-0.4
			c0.1-0.1,0.3-0.2,0.4-0.2c0.1,0,0.3-0.1,0.4-0.1c0.1,0,0.3,0,0.4,0.1c0.1,0,0.2,0.1,0.3,0.2c0.1,0.1,0.1,0.2,0.2,0.3
			s0.1,0.2,0.1,0.3c0,0.1,0,0.2-0.1,0.3s-0.1,0.2-0.2,0.3s-0.2,0.1-0.3,0.2c-0.1,0-0.3,0.1-0.4,0.1c0-0.2-0.1-0.3-0.2-0.4
			s-0.2-0.1-0.4-0.1c-0.2,0-0.4,0.1-0.6,0.2s-0.3,0.3-0.4,0.5c0,0.2,0,0.4,0,0.6V83c0,0.2,0,0.4,0,0.6c0,0.2,0,0.3,0,0.5
			c0,0.1,0,0.2,0,0.3c0,0.1,0,0.2,0,0.3c0,0.1,0,0.2,0,0.2c0,0.1,0.1,0.1,0.1,0.1c0.1,0,0.2,0.1,0.3,0.1c0.2,0,0.4,0,0.7,0.1
			l-0.2,0.4c0,0-0.1,0-0.2,0c-0.1,0-0.2,0-0.4,0c-0.2,0-0.3,0-0.5,0c-0.2,0-0.3,0-0.5,0c-0.2,0-0.4,0-0.6,0s-0.3,0-0.5,0
			c-0.1,0-0.2,0-0.3,0s-0.1,0-0.1,0c0,0,0-0.1,0-0.1c0-0.1,0-0.1,0.1-0.2c0.1-0.1,0.1-0.1,0.2-0.2s0.3-0.1,0.5-0.1
			c0-0.2,0-0.3,0-0.5c0-0.2,0-0.3,0-0.5c0-0.2,0-0.3,0-0.5v-0.4c0-0.5,0-1,0-1.3c0-0.3,0-0.6,0-0.7c0-0.1,0-0.2,0-0.3
			s-0.1-0.1-0.1-0.1s-0.2,0-0.3-0.1s-0.3,0-0.5,0l0.1-0.4c0.2,0,0.5-0.1,0.7-0.1c0.2,0,0.4-0.1,0.6-0.1s0.3-0.1,0.5-0.1
			C62.9,79.8,63,79.8,63.2,79.8L63.2,79.8z"/>
		<path class="st3" fill="#E5B998" d="M65.8,80c0,0,0.1,0,0.2,0c0.1,0,0.2,0,0.3,0c0.1,0,0.3,0,0.4,0c0.2,0,0.3,0,0.5,0c0.2,0,0.3,0,0.4,0
			c0.1,0,0.2,0,0.3,0c0.1,0.2,0.2,0.5,0.3,0.8s0.2,0.6,0.4,1s0.3,0.7,0.4,1.1c0.1,0.4,0.3,0.8,0.4,1.2h0c0.2-0.4,0.4-0.9,0.5-1.2
			c0.2-0.4,0.3-0.7,0.4-1c0.1-0.3,0.2-0.5,0.3-0.7c0.1-0.2,0.1-0.3,0.1-0.3c0-0.1-0.1-0.2-0.2-0.2c-0.2,0-0.4-0.1-0.7-0.1l0.1-0.4
			c0,0,0.1,0,0.2,0c0.1,0,0.2,0,0.3,0c0.1,0,0.2,0,0.4,0c0.1,0,0.3,0,0.4,0c0.2,0,0.4,0,0.5,0c0.2,0,0.3,0,0.4,0s0.2,0,0.3,0
			s0.2,0,0.2,0c0,0.1,0,0.1,0,0.2c0,0.1-0.1,0.1-0.2,0.2c-0.1,0.1-0.2,0.1-0.3,0.1s-0.3,0.1-0.5,0.1c-0.1,0.1-0.2,0.3-0.3,0.5
			s-0.2,0.5-0.4,0.8c-0.1,0.3-0.3,0.6-0.4,0.9s-0.3,0.7-0.4,1c-0.1,0.3-0.3,0.6-0.4,1c-0.1,0.3-0.2,0.6-0.3,0.8
			c-0.1,0-0.3,0-0.4,0.1c-0.1,0-0.2,0.1-0.3,0.1c-0.1-0.3-0.2-0.6-0.3-1s-0.2-0.7-0.3-1c-0.1-0.3-0.2-0.6-0.3-0.9
			c-0.1-0.3-0.2-0.6-0.3-0.8c-0.1-0.3-0.2-0.5-0.3-0.7s-0.2-0.3-0.2-0.4c-0.1-0.1-0.1-0.2-0.2-0.2c-0.1-0.1-0.1-0.1-0.2-0.1
			c-0.1,0-0.2-0.1-0.3-0.1c-0.1,0-0.2,0-0.4,0L65.8,80z"/>
		<path class="st3" fill="#E5B998" d="M78.2,85.2c-0.1,0.1-0.3,0.1-0.4,0.2c-0.2,0.1-0.3,0.1-0.5,0.2c-0.2,0-0.3,0.1-0.5,0.1c-0.1,0-0.3,0-0.4,0
			c-0.1,0-0.2,0-0.3-0.1c-0.1,0-0.2-0.1-0.2-0.2c-0.1-0.1-0.1-0.1-0.1-0.2c0-0.1,0-0.2,0-0.3v-0.3h0c-0.4,0.3-0.7,0.6-1,0.7
			c-0.3,0.2-0.7,0.3-1,0.3c-0.2,0-0.4,0-0.5-0.1c-0.2-0.1-0.3-0.1-0.4-0.3c-0.1-0.1-0.2-0.2-0.3-0.4s-0.1-0.3-0.1-0.5
			c0-0.2,0-0.4,0.1-0.6c0.1-0.2,0.2-0.3,0.4-0.5c0.2-0.1,0.4-0.3,0.6-0.4s0.5-0.2,0.7-0.3c0.3-0.1,0.5-0.2,0.8-0.2
			c0.3-0.1,0.5-0.1,0.8-0.2v-0.2c0-0.3,0-0.5-0.1-0.7c-0.1-0.2-0.2-0.3-0.3-0.5s-0.2-0.2-0.4-0.3c-0.2-0.1-0.3-0.1-0.5-0.1
			c-0.3,0-0.5,0-0.6,0.1c-0.1,0.1-0.2,0.2-0.2,0.4c0,0.1,0,0.2,0.1,0.3c0,0.1,0.1,0.2,0.2,0.3c0,0.1-0.1,0.1-0.1,0.2
			c-0.1,0.1-0.1,0.1-0.2,0.1c-0.1,0-0.2,0.1-0.2,0.1c-0.1,0-0.2,0-0.2,0c-0.1,0-0.2,0-0.2,0c-0.1,0-0.1-0.1-0.2-0.1
			s-0.1-0.1-0.1-0.2c0-0.1,0-0.1,0-0.2c0-0.1,0-0.3,0.1-0.4c0.1-0.1,0.2-0.3,0.3-0.4c0.1-0.1,0.3-0.3,0.5-0.4
			c0.2-0.1,0.4-0.2,0.6-0.3c0.2-0.1,0.4-0.2,0.6-0.2s0.4-0.1,0.6-0.1c0.3,0,0.6,0.1,0.8,0.2c0.2,0.1,0.4,0.3,0.5,0.5
			c0.1,0.2,0.2,0.4,0.3,0.7c0.1,0.2,0.1,0.5,0.1,0.7c0,0.1,0,0.2,0,0.3c0,0.1,0,0.3,0,0.5s0,0.3,0,0.5c0,0.2,0,0.4,0,0.5
			s0,0.3,0,0.4c0,0.1,0,0.2,0,0.3c0,0.1,0,0.2,0,0.3c0,0.1,0,0.1,0.1,0.2c0,0,0.1,0.1,0.1,0.1c0.1,0,0.1,0,0.2,0
			c0.2,0,0.4-0.1,0.7-0.2L78.2,85.2z M75.8,84.2c0-0.2,0-0.4,0-0.7c0-0.2,0-0.5,0-0.9c-0.4,0.1-0.8,0.2-1,0.3
			c-0.3,0.1-0.5,0.2-0.6,0.3c-0.2,0.1-0.3,0.2-0.3,0.4s-0.1,0.3-0.1,0.4c0,0.1,0,0.3,0.1,0.4c0,0.1,0.1,0.2,0.2,0.2
			c0.1,0.1,0.1,0.1,0.2,0.1s0.2,0,0.3,0c0.1,0,0.3,0,0.4-0.1c0.1-0.1,0.3-0.1,0.4-0.2s0.2-0.1,0.3-0.2S75.8,84.3,75.8,84.2z"/>
	</g>
	<path class="st3" fill="#E5B998" d="M92.8,31.3c-1.9,0.3-5,0.8-6.1,4.2v11.1h-0.7V35.5c-1.1-3.3-4.2-3.9-6.1-4.2c4.7-1,6-3.9,6.4-5.5
		c0-0.1,0.1-0.8,0.1-0.9c0,0.1,0,0.8,0.1,0.9C86.8,27.5,88.1,30.4,92.8,31.3z"/>
</g>
</svg>
